{
    "id": "org.kde.kpat",
    "branch": "master",
    "runtime": "org.kde.Platform",
    "runtime-version": "5.15-21.08",
    "sdk": "org.kde.Sdk",
    "command": "kpat",
    "rename-icon": "kpat",
    "tags": ["nightly"],
    "desktop-file-name-suffix": " (Nightly)",
    "finish-args": [
        "--device=dri",
        "--share=ipc",
        "--socket=x11",
        "--socket=wayland",
        "--share=network"
    ],

    "modules": [
        "libkdegames.json",
        {
            "name": "freecell-solver",
            "buildsystem": "cmake",
            "config-opts": [ "-DFCS_WITH_TEST_SUITE=OFF", "-DFCS_BUILD_DOCS=OFF" ],
            "build-options" : {
                "env": {
                    "PERLLIB": "/app/lib/perl5/site_perl/5.32.0:/app/lib/perl5/site_perl/5.32.0/arch"
                }
            },
            "sources": [
                {
                    "type": "archive",
                    "url": "https://fc-solve.shlomifish.org/downloads/fc-solve/freecell-solver-6.6.0.tar.xz",
                    "sha256": "16b58e78d44d95d0ff1b10496dd2d8bd27de592a26f8f874e95a1d841309048c",
                    "x-checker-data": {
                        "type": "html",
                        "url": "https://fc-solve.shlomifish.org/download.html",
                        "version-pattern": "freecell-solver-([\\d\\.-]+)\\.tar\\.xz",
                        "url-template": "https://fc-solve.shlomifish.org/downloads/fc-solve/freecell-solver-$version.tar.xz"
                    }
                }
            ],
            "modules": [
                {
                    "name": "rinutils",
                    "buildsystem": "cmake",
                    "config-opts": [ "-DWITH_TEST_SUITE=OFF" ],
                    "sources": [
                        {
                            "type": "archive",
                            "url": "https://github.com/shlomif/rinutils/releases/download/0.10.0/rinutils-0.10.0.tar.xz",
                            "sha256": "70d89f0a8464f8f494f33704b7c9396e7fca392e8aafaa4465710c1a389e9806",
                            "x-checker-data": {
                                "type": "anitya",
                                "project-id": 230526,
                                "stable-only": true,
                                "url-template": "https://github.com/shlomif/rinutils/releases/download/$version/rinutils-$version.tar.xz"
                            }
                        }
                    ]
                },
                {
                    "name": "random2",
                    "buildsystem": "simple",
                    "build-commands": [
                        "pip3 install --prefix=/app --no-deps ."
                    ],
                    "sources": [
                        {
                            "type": "archive",
                            "url": "https://files.pythonhosted.org/packages/ee/b5/5aca5217501fbd06b1e5aed6d5986baa0da5380880e6bb6f421ed18e3a32/random2-1.0.1.zip",
                            "sha256": "34ad30aac341039872401595df9ab2c9dc36d0b7c077db1cea9ade430ed1c007"
                        }
                    ]
                },
                {
                    "name": "pbr",
                    "buildsystem": "simple",
                    "build-commands": [
                        "pip3 install --prefix=/app --no-deps ."
                    ],
                    "sources": [
                        {
                            "type": "git",
                            "url": "https://github.com/openstack/pbr.git",
                            "tag": "5.6.0",
                            "x-checker-data": {
                                "type": "git",
                                "tag-pattern": "^([\\d.]+)$"
                            }
                        }
                    ]
                },
                {
                    "name": "pysol_cards",
                    "buildsystem": "simple",
                    "build-commands": [
                        "pip3 install --prefix=/app --no-deps ."
                    ],
                    "sources": [
                        {
                            "type": "archive",
                            "url": "https://pypi.io/packages/source/p/pysol_cards/pysol_cards-0.10.1.tar.gz",
                            "sha256": "ea6ac7e5849d0002cc880868f3a82a84332d5bbb79eb6496ed9676a104046297"
                        }
                    ]
                },
                {
                    "name": "perl-modules",
                    "buildsystem": "simple",
                    "build-commands": [
                        "echo 'this is a workaround for a flatpak+perl limitation'",
                        "tar xhf Path-Tiny-0.114.tar.gz",
                        "tar xhf Template-Toolkit-3.009.tar.gz",
                        "tar xhf Moo-2.003006.tar.gz",
                        "tar xhf Module-Runtime-0.016.tar.gz",
                        "tar xhf Sub-Quote-2.006003.tar.gz",
                        "cd Path-Tiny-0.114 && perl Makefile.PL PREFIX=/app && make && make install",
                        "cd Template-Toolkit-3.009 && perl Makefile.PL PREFIX=/app && make && make install",
                        "cd Moo-2.003006 && perl Makefile.PL PREFIX=/app && make && make install",
                        "cd Module-Runtime-0.016 && perl Makefile.PL PREFIX=/app && make && make install",
                        "cd Sub-Quote-2.006003 && perl Makefile.PL PREFIX=/app && make && make install",
                        "ln -s /app/lib/perl5/site_perl/5.32.0/$(basename `ls -d /usr/lib/perl5/5.32.0/*-linux`) /app/lib/perl5/site_perl/5.32.0/arch"
                    ],
                    "post-install": [
                        "chmod -R u+w /app/lib/perl5/site_perl"
                    ],
                    "sources": [
                        {
                            "type": "file",
                            "url": "https://cpan.metacpan.org/authors/id/D/DA/DAGOLDEN/Path-Tiny-0.114.tar.gz",
                            "sha256": "cd0f88f37a58fc3667ec065767fe01e73ee6efa18a112bfd3508cf6579ca00e1"
                        },
                        {
                            "type": "file",
                            "url": "https://search.cpan.org/CPAN/authors/id/A/AT/ATOOMIC/Template-Toolkit-3.009.tar.gz",
                            "sha256": "d6ad23bbf637a59b5dfd1ac006460dfcb185982e4852cde77150fbd085f1f5b6"
                        },
                        {
                            "type": "file",
                            "url": "https://cpan.metacpan.org/authors/id/H/HA/HAARG/Moo-2.003006.tar.gz",
                            "sha256": "bcb2092ab18a45005b5e2e84465ebf3a4999d8e82a43a09f5a94d859ae7f2472"
                        },
                        {
                            "type": "file",
                            "url": "https://search.cpan.org/CPAN/authors/id/Z/ZE/ZEFRAM/Module-Runtime-0.016.tar.gz",
                            "sha256": "68302ec646833547d410be28e09676db75006f4aa58a11f3bdb44ffe99f0f024"
                        },
                        {
                            "type": "file",
                            "url": "https://search.cpan.org/CPAN/authors/id/H/HA/HAARG/Sub-Quote-2.006003.tar.gz",
                            "sha256": "be1f3a6f773f351f203cdc8f614803ac492b77d15fd68d5b1f0cd3884be18176"
                        }
                    ]
                }
            ]
        },
        {
            "name": "black-hole-solver",
            "buildsystem": "cmake",
            "build-options" : {
                "env": {
                    "PERLLIB": "/app/lib/perl5/site_perl/5.32.0:/app/lib/perl5/site_perl/5.32.0/arch"
                }
            },
            "sources": [
                {
                    "type": "archive",
                    "url": "https://fc-solve.shlomifish.org/downloads/fc-solve/black-hole-solver-1.10.1.tar.xz",
                    "sha256": "36e1953a99e02e82489a3cb109fb590bcab307b4ddaec34cb0e67347668511e2"
                }
            ]
        },
        {
            "name": "kpat",
            "buildsystem": "cmake-ninja",
            "sources": [
                { "type": "git", "url": "https://invent.kde.org/kde/kpat.git" }
            ]
        }
    ]
}
