{
    "id": "org.kde.tokodon",
    "branch": "master",
    "runtime": "org.kde.Platform",
    "runtime-version": "5.15-21.08",
    "sdk": "org.kde.Sdk",
    "command": "tokodon",
    "tags": ["nightly"],
    "desktop-file-name-suffix": " (Nightly)",
    "finish-args": [
        "--share=ipc",
        "--socket=fallback-x11",
        "--socket=wayland",
        "--device=dri",
        "--share=network"
    ],

    "modules": [
        {
            "name": "icon",
            "buildsystem": "simple",
            "build-commands": [
                "mkdir -p /app/share/icons/hicolor/32x32/apps/",
                "install -D /usr/share/icons/breeze/mimetypes/64/none.svg /app/share/icons/hicolor/32x32/apps/org.kde.tokodon.svg"
            ]
        },
        {
            "name": "libsecret",
            "sources": [
                {
                    "type": "archive",
                    "url": "https://gitlab.gnome.org/GNOME/libsecret/-/archive/0.20.5/libsecret-0.20.5.tar.gz",
                    "sha256": "b33b9542222ea8866f6ff2d31c0ad373877c2277db546ca00cc7fdda9cbab1c3",
                    "x-checker-data": {
                        "type": "gnome",
                        "name": "libsecret",
                        "stable-only": true
                    }
                }
            ],
            "config-opts": [ "--disable-static", "--disable-gtk-doc", "--disable-manpages" ]
        },
        {
            "name": "qtkeychain",
            "buildsystem": "cmake-ninja",
            "sources": [
                {
                    "type": "archive",
                    "url": "https://github.com/frankosterfeld/qtkeychain/archive/v0.13.2.tar.gz",
                    "sha256": "20beeb32de7c4eb0af9039b21e18370faf847ac8697ab3045906076afbc4caa5",
                    "x-checker-data": {
                        "type": "anitya",
                        "project-id": 4138,
                        "stable-only": true,
                        "url-template": "https://github.com/frankosterfeld/qtkeychain/archive/v$version.tar.gz"
                    }
                }
            ],
            "config-opts": [ "-DCMAKE_INSTALL_LIBDIR=/app/lib", "-DLIB_INSTALL_DIR=/app/lib", "-DBUILD_TRANSLATIONS=NO" ]
        },
        {
            "name": "tokodon",
            "buildsystem": "cmake-ninja",
            "sources": [
                { "type": "git", "url": "https://invent.kde.org/network/tokodon.git" }
            ]
        }
    ]
}
