{
    "id": "org.kde.Falkon",
    "branch": "master",
    "runtime": "org.kde.Platform",
    "runtime-version": "5.15-21.08",
    "base": "io.qt.qtwebengine.BaseApp",
    "base-version": "5.15-21.08",
    "sdk": "org.kde.Sdk",
    "rename-icon": "falkon",
    "command": "falkon",
    "tags": ["nightly"],
    "desktop-file-name-suffix": " (Nightly)",
    "rename-desktop-file": "org.kde.falkon.desktop",
    "finish-args": [
        "--share=ipc",
        "--share=network",
        "--socket=x11",
        "--socket=wayland",
        "--socket=pulseaudio",
        "--device=dri",
        "--filesystem=host",
        "--system-talk-name=org.freedesktop.GeoClue2"
    ],

    "modules": [
        {
            "buildsystem": "cmake-ninja",
            "name": "falkon",
            "config-opts": ["-DENABLE_TESTING=OFF" ],
            "sources": [
                {
                    "type": "git",
                    "url": "https://invent.kde.org/kde/falkon.git"
                }
            ]
        }
    ]
}
