{
    "id": "org.kde.okular.kirigami",
    "branch": "master",
    "runtime": "org.kde.Platform",
    "runtime-version": "5.15-21.08",
    "sdk": "org.kde.Sdk",
    "command": "okularkirigami",
    "rename-icon": "okular",
    "tags": ["nightly"],
    "desktop-file-name-suffix": " (Nightly)",
    "finish-args": [
        "--share=ipc",
        "--socket=cups",
        "--socket=x11",
        "--socket=wayland",
        "--device=dri"
    ],
    "modules": [
        "okular_dependencies.json",
        {
            "name": "okular",
            "buildsystem": "cmake-ninja",
            "config-opts": [ "-DOKULAR_UI=mobile" ],
            "builddir": true,
            "sources": [ { "type": "git", "url": "https://invent.kde.org/graphics/okular.git", "branch": "master" } ]
        }
    ]
}
